Fracture CHI 2019 Results: n>=2
…
stats$blacklistMeta <- plyr::revalue(stats$blacklistMeta, c("Keep this team"="0", "Do not keep this team"="1"))
stats$blacklistIndividual <- plyr::revalue(stats$blacklistIndividual, c("Keep this team"="0", "Do not keep this team"="1"))
stats$blacklistIndividual <- as.numeric(stats$blacklistIndividual)
stats$blacklistMeta <- as.numeric(stats$blacklistMeta)

groupedProportion <- stats %>%
  group_by(room, batch, round, condition, results.condition, results.format) %>%  ## to-do: add group ID in storage db. 
  summarise(n=n(), mean=mean(sum), median=median(sum), prop=sum(blacklistIndividual)/n) %>% 
## Filter out all teams with n=1 (i.e. a person in a one person team) 
  filter(n>=2)
print(groupedProportion)

## # A tibble: 102 x 10
## # Groups:   room, batch, round, condition, results.condition [102]
##    room    batch round condition results.condition results.format     n
##    <chr>   <dbl> <int> <chr>     <chr>             <chr>          <int>
##  1 A     1.54e12     3 B         control           c(2, 1, 3, 1)      2
##  2 A     1.54e12     1 A         treatment         c(1, 2, 3, 1)      3
##  3 A     1.54e12     2 B         treatment         c(1, 2, 3, 1)      3
##  4 A     1.54e12     3 B         treatment         c(1, 2, 3, 1)      2
##  5 A     1.54e12     4 Ap        treatment         c(1, 2, 3, 1)      3
##  6 A     1.54e12     2 B         treatment         c(1, 2, 3, 1)      2
##  7 A     1.54e12     1 A         treatment         c(1, 2, 1, 3)      3
##  8 A     1.54e12     3 Ap        treatment         c(1, 2, 1, 3)      3
##  9 A     1.54e12     4 B         treatment         c(1, 2, 1, 3)      2
## 10 A     1.54e12     1 A         control           c(1, 2, 3, 1)      2
## # ... with 92 more rows, and 3 more variables: mean <dbl>, median <dbl>,
## #   prop <dbl>

## Individual proportion: 
individualProportion <- stats %>% group_by(round, batch, room) %>% 
  mutate(sum=sum, mean=mean(sum), median=median(sum), n=n(),prop=sum(blacklistIndividual)/n) %>% 
  filter(n>1)
print(individualProportion)

## # A tibble: 225 x 30
## # Groups:   round, batch, room [102]
##    results.viabilit results.viabilit results.viabilit results.viabilit
##                <dbl>             <dbl>             <dbl>             <dbl>
##  1                4.                4.                5.                4.
##  2                4.                4.                4.                4.
##  3                1.                5.                2.                3.
##  4                5.                5.                4.                4.
##  5                4.                2.                2.                2.
##  6                3.                4.                3.                3.
##  7                4.                4.                4.                4.
##  8                3.                4.                4.                4.
##  9                5.                5.                5.                5.
## 10                4.                4.                4.                4.
## # ... with 215 more rows, and 26 more variables:
## #   results.viabilityCheck.5 <dbl>, results.viabilityCheck.6 <dbl>,
## #   results.viabilityCheck.7 <dbl>, results.viabilityCheck.8 <dbl>,
## #   results.viabilityCheck.9 <dbl>, results.viabilityCheck.10 <dbl>,
## #   results.viabilityCheck.11 <dbl>, results.viabilityCheck.12 <dbl>,
## #   results.viabilityCheck.13 <dbl>, results.viabilityCheck.14 <dbl>,
## #   id <chr>, round <int>, batch <dbl>, room <chr>,
## #   blacklistIndividual <dbl>, blacklistMeta <dbl>,
## #   results.manipulation <list>, results.condition <chr>,
…
